requestId,"status","message","date","reference","signature","url",monto,"detalle"
6218,"REJECTED","La petición ha sido cancelada por el usuario","2018-04-09 21:22:15","TEST_1523308928","","https://test.placetopay.ec/redirection/session/6218/e4815278375db632b50e4cd163b0f280",300.00,"La petición ha sido cancelada por el usuario"
6180,"APPROVED","La petición se ha procesado correctamente","2018-04-09 17:40:35","TEST_1523295465","","https://test.placetopay.ec/redirection/session/6180/4c7bf092812e36ab6e524111d89ca8d5",300.00,"Aprobada"
6221,"REJECTED","La petición ha sido rechazada","2018-04-09 22:29:40","TEST_1523309152","","https://test.placetopay.ec/redirection/session/6221/28f9d7e9f2c38da3612debcb7dcebe99",791.00,NULL
6220,"REJECTED","La petición ha sido cancelada por el usuario","2018-04-09 21:25:27","TEST_1523309117","","https://test.placetopay.ec/redirection/session/6220/d0336c795df03b4d350426a824612014",395.50,"La petición ha sido cancelada por el usuario"
6213,"REJECTED","La petición ha sido cancelada por el usuario","2018-04-09 21:08:55","TEST_1523308127","","https://test.placetopay.ec/redirection/session/6213/7a9fb2a17a82891395b42a2ec729fe2a",300.00,"La petición ha sido cancelada por el usuario"
